<?xml version="1.0" encoding="utf-8"?>
<!-- Generator: Adobe Illustrator 15.1.0, SVG Export Plug-In . SVG Version: 6.00 Build 0)  -->
<!DOCTYPE svg PUBLIC "-//W3C//DTD SVG 1.1//EN" "http://www.w3.org/Graphics/SVG/1.1/DTD/svg11.dtd">
<svg version="1.1" xmlns="http://www.w3.org/2000/svg" xmlns:xlink="http://www.w3.org/1999/xlink" x="0px" y="0px"
	 width="1269.127px" height="1269.127px" viewBox="0 0 1269.127 1269.127" enable-background="new 0 0 1269.127 1269.127"
	 xml:space="preserve">
<g id="Layer_3" display="none">
	<g display="inline">
		<rect x="-62.509" y="-52.456" fill="#020202" width="1431.143" height="1389.14"/>
	</g>
</g>
<g id="Layer_1">
</g>
<g id="Layer_2">
	<g>
		<g>
			<path fill="#FFFFFF" d="M169.133,684.904l5.836-27.049l87.901-44.804l-57.479-12.404c-6.125-1.32-10.095-1.459-11.911-0.415
				c-2.449,1.369-4.097,4.015-4.943,7.934l-0.745,3.454l-2.72-0.587l7.486-34.692l2.72,0.586l-0.762,3.528
				c-0.909,4.214-0.279,7.478,1.888,9.793c1.336,1.416,4.796,2.727,10.382,3.931l84.015,18.131l-0.571,2.646l-94.445,48.393
				l61.375,13.242c6.126,1.322,10.091,1.486,11.895,0.49c2.46-1.418,4.107-4.062,4.943-7.933l0.761-3.528l2.72,0.587l-7.486,34.692
				l-2.72-0.587l0.746-3.454c0.92-4.265,0.296-7.552-1.872-9.866c-1.335-1.415-4.796-2.727-10.382-3.933l-69.313-14.957
				c-4.005,2.163-6.708,3.874-8.108,5.136c-1.4,1.263-2.878,3.238-4.433,5.929c-0.748,1.326-1.434,3.435-2.057,6.325
				L169.133,684.904z"/>
		</g>
		<g>
			<path fill="#FFFFFF" d="M221.547,528.488l35.601,18.896l10.505-19.792c2.726-5.137,3.774-8.979,3.14-11.529
				c-0.814-3.383-3.719-6.571-8.715-9.563l1.305-2.457l31.349,16.64l-1.304,2.457c-4.713-1.706-7.853-2.579-9.422-2.617
				c-1.972-0.025-3.883,0.635-5.733,1.979c-1.849,1.347-3.773,3.902-5.77,7.664l-10.506,19.794l29.689,15.758
				c3.985,2.115,6.503,3.227,7.555,3.329c1.051,0.104,2.067-0.15,3.046-0.768c0.979-0.613,2.126-2.161,3.443-4.642l8.108-15.276
				c2.703-5.091,4.312-8.978,4.825-11.656c0.514-2.678,0.295-5.632-0.659-8.862c-1.288-4.203-3.936-9.21-7.943-15.028l1.41-2.656
				l18.458,19.758l-36.84,69.407l-2.458-1.305l1.692-3.188c1.128-2.125,1.689-4.409,1.681-6.855
				c0.044-1.791-0.507-3.318-1.654-4.581c-1.147-1.26-3.912-3.056-8.296-5.381l-58.515-31.061
				c-5.712-3.031-9.538-4.323-11.478-3.877c-2.616,0.653-4.913,2.841-6.887,6.559l-1.692,3.188l-2.458-1.304l36.84-69.408
				l20.255,9.475l-1.375,2.591c-5.231-1.585-9.032-2.283-11.403-2.095c-2.37,0.19-4.608,1.145-6.713,2.864
				c-1.604,1.419-3.594,4.365-5.967,8.836L221.547,528.488z"/>
		</g>
		<g>
			<path fill="#FFFFFF" d="M361.718,348.904l1.926,2.009c-1.919,1.839-3.145,3.674-3.681,5.506c-0.535,1.833-0.443,4.21,0.274,7.133
				c0.49,1.961,2.246,6.075,5.269,12.343l36.349,79.005l-2.171,2.08l-61.885-30.989l28.444,63.041l-1.954,1.873l-80.464-40.16
				c-5.999-2.999-9.614-4.706-10.847-5.123c-2.042-0.68-4.008-0.758-5.898-0.23c-1.89,0.526-3.903,1.813-6.039,3.859l-1.925-2.008
				l27.252-26.119l1.925,2.009l-1.303,1.248c-1.918,1.838-2.968,3.679-3.148,5.517c-0.181,1.841,0.319,3.376,1.498,4.605
				c1.215,1.268,4.802,3.419,10.766,6.451l54.09,27.422l-21.449-46.832l-8.103-4.107l-6.472-3.274
				c-2.494-1.081-4.871-1.858-7.13-2.332c-1.129-0.236-2.264-0.261-3.402-0.072c-1.53,0.216-2.885,0.613-4.067,1.189
				c-0.896,0.442-2.086,1.374-3.569,2.796l-1.925-2.008l28.664-27.473l1.925,2.009l-1.954,1.874
				c-2.027,1.941-3.095,3.799-3.203,5.568c-0.109,1.771,0.549,3.398,1.971,4.882c1.769,1.846,5.671,4.287,11.704,7.321
				l52.461,26.482l-24.861-53.977c-2.708-6.013-4.896-9.891-6.561-11.627c-0.797-0.832-1.806-1.357-3.024-1.579
				s-2.365-0.094-3.438,0.379c-1.861,0.812-3.896,2.275-6.103,4.391l-1.925-2.009L361.718,348.904z"/>
		</g>
		<g>
			<path fill="#FFFFFF" d="M487.708,292.957l33.502-11.942l0.935,2.621l-1.842,0.656c-1.228,0.438-2.828,1.62-4.802,3.548
				c-1.975,1.929-3.567,4.253-4.779,6.972c-1.212,2.723-2.418,6.878-3.619,12.467l-10.158,44.733l8.584,24.082
				c2.104,5.903,4.078,9.352,5.922,10.343c2.501,1.343,5.688,1.326,9.56-0.055l3.117-1.111l0.934,2.621l-40.797,14.542l-0.935-2.62
				l3.4-1.212c4.061-1.447,6.504-3.702,7.329-6.764c0.5-1.88-0.209-5.514-2.128-10.896l-8.105-22.736l-40.689-30.839
				c-4.799-3.61-7.965-5.809-9.495-6.595c-1.531-0.784-4.337-1.379-8.421-1.788c-1.113-0.134-2.567,0.118-4.361,0.756l-0.934-2.62
				l41.081-14.644l0.934,2.621l-2.125,0.757c-2.22,0.792-4.077,2.039-5.571,3.743c-1.496,1.703-1.872,3.594-1.131,5.672
				c0.606,1.699,3.14,4.256,7.603,7.667l31.078,23.808l8.287-36.323c1.251-5.446,1.49-9.258,0.715-11.431
				c-0.471-1.321-1.234-2.38-2.289-3.175c-1.055-0.795-2.325-1.26-3.811-1.396c-1.485-0.136-3.503,0.251-6.053,1.159
				L487.708,292.957z"/>
		</g>
		<g>
			<path fill="#FFFFFF" d="M602.554,270.935c13.222-0.589,24.901,3.921,35.039,13.529c10.139,9.609,15.543,21.926,16.213,36.949
				c0.689,15.476-3.62,28.539-12.931,39.189c-9.31,10.652-20.902,16.288-34.773,16.906c-14.022,0.625-26.026-3.832-36.01-13.373
				c-9.985-9.54-15.33-22.224-16.036-38.05c-0.721-16.174,4.198-29.617,14.761-40.324
				C577.986,276.472,589.232,271.529,602.554,270.935z M601.371,276.481c-9.115,0.407-16.276,4.112-21.483,11.12
				c-6.486,8.719-9.367,21.191-8.644,37.417c0.742,16.628,4.867,29.266,12.378,37.912c5.762,6.568,13.125,9.651,22.091,9.252
				c9.564-0.428,17.299-4.51,23.201-12.25s8.495-19.648,7.778-35.725c-0.777-17.428-4.787-30.271-12.03-38.527
				C618.85,279.115,611.086,276.049,601.371,276.481z"/>
		</g>
		<g>
			<path fill="#FFFFFF" d="M756.611,397.196l-26.449-6.435l-22.265-54.483c-2.508-0.506-4.541-0.949-6.1-1.329
				c-0.633-0.154-1.312-0.331-2.037-0.534c-0.725-0.202-1.471-0.423-2.238-0.66l-7.004,28.786
				c-1.518,6.235-1.778,10.273-0.781,12.114c1.329,2.595,3.845,4.341,7.547,5.242l3.873,0.942l-0.658,2.702l-42.449-10.328
				l0.657-2.703l3.727,0.906c4.188,1.02,7.516,0.386,9.981-1.904c1.391-1.26,2.773-4.717,4.148-10.366l15.573-64.005
				c1.517-6.234,1.776-10.271,0.781-12.114c-1.379-2.604-3.943-4.364-7.693-5.277l-3.727-0.906l0.658-2.703l36.093,8.782
				c10.521,2.56,18.091,5.215,22.711,7.964c4.619,2.748,8.169,6.605,10.65,11.568c2.48,4.964,3.028,10.295,1.643,15.994
				c-1.482,6.089-4.753,10.891-9.812,14.405c-5.062,3.517-11.98,5.186-20.76,5.009l13.542,33.399
				c3.088,7.666,6.052,12.979,8.891,15.938c2.84,2.962,6.892,5.393,12.156,7.293L756.611,397.196z M698.643,329.151
				c0.925,0.225,1.726,0.433,2.402,0.623c0.676,0.191,1.233,0.339,1.672,0.445c9.449,2.3,17.07,1.987,22.864-0.938
				c5.792-2.924,9.46-7.552,11.001-13.884c1.505-6.186,0.793-11.687-2.138-16.501c-2.93-4.814-7.586-7.998-13.966-9.55
				c-2.825-0.688-6.762-1.156-11.809-1.403L698.643,329.151z"/>
		</g>
		<g>
			<path fill="#FFFFFF" d="M817.571,368.033l13.771,51.191c2.239,8.428,4.686,14.701,7.34,18.817
				c2.653,4.12,5.791,7.402,9.412,9.851l-1.396,2.406l-41.953-24.334l1.396-2.407c2.515,1.458,4.571,2.086,6.167,1.882
				c1.597-0.205,2.696-0.826,3.301-1.867c0.604-1.041,0.938-2.092,1.004-3.156c0.064-1.062-0.396-3.388-1.387-6.976l-12.973-47.773
				l-16.487,28.426c-2.591,4.467-4.02,7.578-4.286,9.337c-0.195,1.335,0.175,2.795,1.11,4.381c1.26,2.121,2.933,3.787,5.014,4.995
				l2.991,1.735l-1.396,2.406l-37.596-21.808l1.396-2.406l3.123,1.811c3.643,2.113,6.902,2.585,9.783,1.416
				c1.846-0.783,4.303-3.819,7.372-9.111l33.05-56.979c2.591-4.466,4.031-7.601,4.323-9.401c0.17-1.293-0.191-2.72-1.082-4.279
				c-1.305-2.147-2.997-3.824-5.079-5.031l-3.121-1.812l1.396-2.406l37.596,21.807l-1.396,2.407l-2.992-1.736
				c-2.039-1.183-4.301-1.827-6.787-1.937c-1.747-0.086-3.283,0.414-4.607,1.499c-1.326,1.088-3.246,3.798-5.761,8.133
				l-15.657,26.994c1.344-0.32,5.912-1.352,13.702-3.092c19.72-4.324,32.068-7.68,37.047-10.066
				c2.177-1.055,3.643-2.232,4.397-3.535c0.578-0.996,0.632-2.138,0.162-3.426c-0.472-1.287-1.791-2.56-3.959-3.817l-2.016-1.169
				l1.396-2.407l32.393,18.789l-1.396,2.407c-1.934-1.064-3.818-1.81-5.656-2.238c-1.838-0.428-4.28-0.614-7.327-0.556
				c-3.048,0.058-7.1,0.648-12.155,1.772c-1.458,0.314-8.438,2.206-20.938,5.675L817.571,368.033z"/>
		</g>
		<g>
			<path fill="#FFFFFF" d="M1006.659,479.415l-25.99,23.056l-1.427-1.844c6.305-8.809,9.497-16.889,9.578-24.239
				c0.079-7.351-2.35-14.219-7.288-20.602c-4.142-5.352-9.243-9.139-15.302-11.359c-6.06-2.219-13.022-2.269-20.886-0.145
				c-7.865,2.123-16.219,6.606-25.059,13.446c-7.297,5.646-12.715,11.707-16.258,18.189c-3.542,6.479-4.923,13.173-4.143,20.08
				c0.78,6.906,3.502,13.373,8.165,19.4c4.05,5.233,8.743,8.985,14.082,11.257c5.337,2.271,13.194,3.228,23.567,2.872l0.236,2.764
				c-10.306,1.509-19.209,0.854-26.712-1.96c-7.502-2.815-14.122-7.93-19.858-15.344c-10.338-13.361-13.389-27.544-9.151-42.549
				c3.141-11.176,9.707-20.631,19.698-28.361c8.048-6.228,16.838-10.145,26.37-11.752c9.531-1.606,18.597-0.683,27.198,2.773
				c8.6,3.455,15.799,8.931,21.596,16.423c4.51,5.828,7.53,12.682,9.063,20.56c0.415,2.341,0.899,3.868,1.452,4.581
				c0.828,1.071,1.925,1.711,3.293,1.921c1.867,0.202,3.922-0.215,6.162-1.25L1006.659,479.415z"/>
		</g>
		<g>
			<path fill="#FFFFFF" d="M948.766,589.819l-2.501,1.219l-19.139-39.273l2.501-1.219l1.581,3.245
				c1.845,3.785,4.287,5.996,7.331,6.632c1.969,0.38,5.702-0.771,11.2-3.45l59.214-28.856c4.641-2.262,7.562-4.048,8.765-5.358
				c0.906-0.999,1.425-2.396,1.556-4.188c0.115-2.512-0.354-4.847-1.408-7.011l-1.581-3.244l2.501-1.219l19.14,39.273l-2.502,1.219
				l-1.614-3.312c-1.823-3.74-4.256-5.928-7.298-6.563c-1.992-0.425-5.736,0.703-11.233,3.382l-59.214,28.856
				c-4.642,2.263-7.562,4.047-8.764,5.359c-0.908,0.999-1.416,2.417-1.523,4.256c-0.138,2.463,0.32,4.778,1.375,6.941
				L948.766,589.819z"/>
		</g>
		<g>
			<path fill="#FFFFFF" d="M1069.569,649.313l-22.829,7.202l-0.73-2.762c3.931-1.611,6.646-3.107,8.147-4.488
				c2.412-2.246,3.955-4.793,4.629-7.641c0.672-2.85,0.471-6.309-0.605-10.379l-3.672-13.885l-75.313,19.916
				c-6.059,1.603-9.666,3.256-10.821,4.963c-1.549,2.379-1.816,5.482-0.804,9.312l0.903,3.417l-2.689,0.71l-11.055-41.799
				l2.689-0.713l0.924,3.49c1.102,4.167,3.144,6.792,6.125,7.869c1.832,0.656,5.512,0.254,11.036-1.207l75.313-19.917l-3.134-11.85
				c-1.218-4.604-2.423-7.786-3.613-9.545c-1.587-2.276-3.927-3.966-7.018-5.067c-3.091-1.101-6.911-1.231-11.459-0.392
				l-0.731-2.762l23.426-4.949L1069.569,649.313z"/>
		</g>
		<g>
			<path fill="#FFFFFF" d="M1073.426,748.891l-0.558,35.562l-2.781-0.043l0.03-1.954c0.021-1.304-0.526-3.218-1.64-5.742
				c-1.114-2.524-2.732-4.831-4.855-6.919c-2.123-2.09-5.593-4.675-10.406-7.76l-38.336-25.191l-25.562-0.4
				c-6.267-0.099-10.188,0.542-11.763,1.921c-2.135,1.872-3.234,4.862-3.299,8.973l-0.052,3.31l-2.782-0.044l0.679-43.308
				l2.781,0.044l-0.057,3.609c-0.066,4.31,1.188,7.389,3.767,9.233c1.586,1.127,5.237,1.736,10.951,1.826l24.135,0.378l43.144-27.3
				c5.063-3.229,8.231-5.425,9.504-6.582c1.271-1.158,2.812-3.578,4.626-7.26c0.517-0.995,0.79-2.444,0.819-4.349l2.782,0.043
				l-0.683,43.608l-2.782-0.044l0.035-2.256c0.037-2.355-0.481-4.533-1.552-6.529c-1.072-1.998-2.711-3.013-4.916-3.048
				c-1.805-0.028-5.087,1.449-9.846,4.433l-33.189,20.764l31.114,20.491c4.663,3.082,8.149,4.641,10.455,4.677
				c1.402,0.021,2.662-0.323,3.776-1.031c1.113-0.71,1.994-1.735,2.643-3.081c0.647-1.343,0.993-3.367,1.035-6.074L1073.426,748.891
				z"/>
		</g>
		<g>
			<path fill="#FFFFFF" d="M1040.294,901.032c-5.141,12.194-14.227,20.81-27.256,25.842c-13.031,5.034-26.475,4.631-40.332-1.211
				c-14.273-6.018-24.224-15.517-29.85-28.496c-5.626-12.98-5.741-25.87-0.348-38.664c5.453-12.935,14.63-21.864,27.532-26.787
				c12.901-4.926,26.651-4.311,41.249,1.843c14.92,6.291,24.95,16.502,30.089,30.638
				C1045.836,876.467,1045.475,888.744,1040.294,901.032z M1035.791,897.583c3.544-8.408,3.27-16.466-0.825-24.176
				c-5.092-9.602-15.121-17.555-30.088-23.864c-15.337-6.466-28.521-8.161-39.555-5.088c-8.405,2.386-14.35,7.714-17.836,15.983
				c-3.72,8.822-3.352,17.56,1.107,26.213c4.459,8.651,14.102,16.104,28.93,22.355c16.075,6.777,29.396,8.665,39.963,5.667
				C1025.911,912.241,1032.013,906.544,1035.791,897.583z"/>
		</g>
		<g>
			<path fill="#FFFFFF" d="M947.861,1042.925l-28.326-20.118l1.475-1.806c10.005,4.154,18.595,5.441,25.774,3.862
				c7.18-1.582,13.322-5.497,18.427-11.749c4.28-5.242,6.817-11.066,7.613-17.47c0.796-6.405-0.728-13.198-4.571-20.38
				c-3.842-7.183-10.095-14.311-18.754-21.38c-7.145-5.833-14.272-9.745-21.386-11.732c-7.112-1.99-13.945-1.825-20.499,0.494
				c-6.552,2.318-12.237,6.428-17.057,12.33c-4.186,5.127-6.781,10.545-7.79,16.26c-1.009,5.712-0.169,13.582,2.519,23.607
				l-2.639,0.854c-3.795-9.698-5.167-18.521-4.117-26.465s4.54-15.547,10.468-22.808c10.685-13.086,23.813-19.259,39.386-18.516
				c11.598,0.538,22.289,4.801,32.075,12.791c7.882,6.436,13.682,14.114,17.398,23.039c3.717,8.923,4.861,17.963,3.435,27.122
				c-1.426,9.157-5.135,17.406-11.127,24.745c-4.66,5.708-10.654,10.196-17.984,13.468c-2.187,0.933-3.564,1.749-4.135,2.448
				c-0.856,1.049-1.232,2.262-1.129,3.641c0.225,1.866,1.094,3.773,2.609,5.722L947.861,1042.925z"/>
		</g>
		<g>
			<path fill="#FFFFFF" d="M852.226,1114.929l-14.907-18.729l2.316-1.673c2.912,3.092,5.282,5.091,7.109,5.998
				c2.962,1.447,5.893,1.975,8.793,1.584c2.901-0.395,6.058-1.823,9.473-4.286l11.646-8.405l-45.585-63.172
				c-3.668-5.082-6.505-7.855-8.512-8.324c-2.775-0.592-5.77,0.271-8.981,2.588l-2.866,2.068l-1.628-2.257l35.062-25.301
				l1.628,2.256l-2.927,2.113c-3.496,2.522-5.213,5.368-5.15,8.538c0.044,1.945,1.738,5.236,5.082,9.871l45.585,63.171l9.939-7.171
				c3.862-2.788,6.401-5.053,7.616-6.794c1.557-2.299,2.295-5.088,2.215-8.368s-1.326-6.895-3.741-10.838l2.317-1.672l13.017,20.093
				L852.226,1114.929z"/>
		</g>
		<g>
			<path fill="#FFFFFF" d="M780.819,1149.376c-12.394,4.643-24.895,3.959-37.505-2.049c-12.609-6.009-21.553-16.056-26.829-30.139
				c-5.434-14.506-5.368-28.261,0.198-41.269c5.566-13.005,14.852-21.943,27.854-26.815c13.145-4.925,25.938-4.391,38.38,1.601
				s21.442,16.403,27.001,31.238c5.68,15.162,5.15,29.467-1.59,42.912C802.477,1136.524,793.308,1144.697,780.819,1149.376z
				 M780.231,1143.734c8.545-3.202,14.211-8.938,17-17.209c3.477-10.297,2.365-23.049-3.333-38.26
				c-5.839-15.586-13.665-26.331-23.479-32.236c-7.508-4.468-15.464-5.127-23.867-1.979c-8.966,3.359-15.062,9.632-18.285,18.816
				c-3.225,9.184-2.014,21.31,3.632,36.379c6.12,16.336,13.9,27.313,23.339,32.932
				C762.793,1146.626,771.124,1147.146,780.231,1143.734z"/>
		</g>
		<g>
			<path fill="#FFFFFF" d="M631.915,1125.948c-7.158-0.993-12.605-3.014-16.343-6.062c-5.18-4.253-8.01-9.702-8.488-16.353
				c-0.363-5.051,0.889-10.003,3.756-14.857c2.868-4.855,7.013-8.546,12.434-11.072c5.424-2.526,13.86-4.199,25.31-5.022
				l48.001-3.452l0.199,2.776l-3.825,0.274c-4.249,0.306-7.202,1.875-8.858,4.708c-1.024,1.832-1.332,5.599-0.922,11.3l4.724,65.701
				c0.452,6.299,1.464,10.223,3.032,11.769c2.107,2.059,5.088,2.95,8.938,2.674l3.825-0.274l0.199,2.774l-43.951,3.16
				c-8.199,0.589-14.818,0.462-19.854-0.382c-7.63-1.262-13.583-4.037-17.863-8.327c-4.277-4.292-6.632-9.412-7.06-15.362
				c-0.367-5.1,0.855-9.775,3.666-14.022C621.646,1131.649,626.006,1128.333,631.915,1125.948z M668.013,1078.572
				c-5.896-0.934-11.67-1.197-17.32-0.79c-9.05,0.649-15.804,3.183-20.262,7.6c-4.457,4.417-6.47,9.626-6.039,15.626
				c0.284,3.949,1.634,7.672,4.045,11.169c2.413,3.493,6.12,6.118,11.121,7.869s11.076,2.37,18.227,1.855
				c3.101-0.222,5.747-0.463,7.939-0.722c2.193-0.259,3.955-0.56,5.287-0.907L668.013,1078.572z M671.507,1127.172
				c-1.875-0.217-4.006-0.327-6.395-0.332c-2.387-0.005-5.006,0.097-7.856,0.303c-7.3,0.524-12.73,1.706-16.293,3.546
				c-3.562,1.839-6.2,4.452-7.917,7.844c-1.717,3.39-2.437,7.01-2.16,10.86c0.429,5.949,3.219,10.851,8.37,14.703
				c5.153,3.851,12.379,5.442,21.679,4.773c5-0.358,9.461-1.234,13.382-2.621L671.507,1127.172z"/>
		</g>
		<g>
			<path fill="#FFFFFF" d="M553.13,1164.796l7.546-39.592l-22.012-4.196c-5.712-1.088-9.692-0.954-11.941,0.404
				c-2.992,1.776-5.181,5.492-6.565,11.148l-2.733-0.52l6.645-34.865l2.733,0.521c-0.239,5.008-0.146,8.266,0.28,9.776
				c0.558,1.893,1.753,3.522,3.583,4.893c1.832,1.37,4.84,2.453,9.026,3.252l22.012,4.194l6.293-33.018
				c0.845-4.432,1.162-7.165,0.951-8.201c-0.21-1.035-0.754-1.93-1.632-2.684c-0.876-0.754-2.693-1.394-5.452-1.919l-16.989-3.238
				c-5.662-1.08-9.85-1.47-12.561-1.17c-2.71,0.3-5.469,1.382-8.273,3.245c-3.635,2.472-7.639,6.479-12.014,12.025l-2.955-0.563
				l13.429-23.467l77.188,14.712l-0.521,2.733l-3.546-0.675c-2.363-0.451-4.711-0.312-7.045,0.416
				c-1.726,0.488-3.022,1.466-3.889,2.934c-0.866,1.468-1.764,4.64-2.694,9.515l-12.403,65.076
				c-1.211,6.353-1.317,10.389-0.318,12.11c1.398,2.306,4.165,3.855,8.301,4.644l3.545,0.676l-0.521,2.733l-77.189-14.712
				l3.073-22.149l2.881,0.55c0.03,5.465,0.485,9.303,1.365,11.512c0.881,2.208,2.453,4.066,4.718,5.569
				c1.829,1.113,5.231,2.146,10.204,3.093L553.13,1164.796z"/>
		</g>
		<g>
			<path fill="#FFFFFF" d="M422.466,1015.521l24.483,11.897l10.208,57.963c2.344,1.027,4.237,1.892,5.68,2.593
				c0.586,0.286,1.212,0.604,1.877,0.954c0.666,0.352,1.349,0.725,2.047,1.121l12.949-26.648c2.804-5.772,3.916-9.663,3.331-11.673
				c-0.748-2.817-2.837-5.058-6.264-6.723l-3.584-1.742l1.216-2.503l39.295,19.095l-1.216,2.503l-3.449-1.677
				c-3.877-1.884-7.263-1.969-10.159-0.256c-1.625,0.938-3.709,4.022-6.251,9.253l-28.789,59.247
				c-2.804,5.771-3.914,9.662-3.332,11.673c0.794,2.839,2.928,5.103,6.399,6.788l3.45,1.677l-1.216,2.503l-33.411-16.235
				c-9.739-4.732-16.574-8.931-20.506-12.598c-3.932-3.665-6.583-8.187-7.956-13.564c-1.372-5.376-0.777-10.701,1.786-15.977
				c2.739-5.638,6.953-9.636,12.644-11.999c5.691-2.362,12.807-2.527,21.35-0.493l-6.153-35.511
				c-1.393-8.146-3.163-13.967-5.31-17.462c-2.147-3.497-5.592-6.73-10.333-9.703L422.466,1015.521z M464.691,1094.309
				c-0.856-0.415-1.594-0.788-2.215-1.117c-0.62-0.33-1.133-0.593-1.539-0.79c-8.747-4.25-16.262-5.562-22.543-3.932
				c-6.281,1.63-10.846,5.374-13.695,11.235c-2.782,5.728-3.252,11.254-1.409,16.58c1.842,5.326,5.718,9.425,11.624,12.295
				c2.615,1.271,6.363,2.562,11.243,3.874L464.691,1094.309z"/>
		</g>
		<g>
			<path fill="#FFFFFF" d="M336.749,959.891l19.007-8.657l42.157,42.913l-1.984,1.949c-23.916-1.312-42.052-0.959-54.406,1.059
				c-12.354,2.017-21.552,5.994-27.596,11.932c-4.613,4.531-7.015,9.668-7.209,15.408c-0.192,5.742,1.644,10.578,5.508,14.513
				c3.513,3.577,7.712,5.758,12.597,6.546s10.016-0.124,15.392-2.734l1.949,1.984c-7.493,5.605-14.829,8.296-22.005,8.072
				c-7.176-0.223-13.487-3.104-18.932-8.648c-5.797-5.9-8.74-12.689-8.832-20.364c-0.091-7.675,2.438-14.042,7.587-19.102
				c3.684-3.618,8.21-6.379,13.58-8.281c8.394-3.043,18.743-4.778,31.046-5.199c18.475-0.652,29.802-0.853,33.982-0.603
				l-18.654-18.988c-3.794-3.863-6.598-6.432-8.413-7.707c-1.814-1.274-3.773-2.105-5.88-2.497
				c-2.105-0.391-4.419-0.261-6.942,0.391L336.749,959.891z"/>
		</g>
		<g>
			<path fill="#FFFFFF" d="M303.983,968.042c-9.777,6.296-19.146,10.244-28.106,11.838c-8.958,1.597-16.741,1.062-23.346-1.602
				c-5.182-2.029-9.076-5.065-11.682-9.112c-4.234-6.575-4.683-14.633-1.347-24.175c4.097-11.88,13.247-22.393,27.45-31.539
				c9.947-6.406,19.32-10.414,28.12-12.027c8.8-1.61,16.202-1.206,22.205,1.22c6.004,2.425,10.335,5.703,12.995,9.832
				c5.266,8.178,4.823,18.091-1.328,29.743C323.769,952.052,315.448,960.66,303.983,968.042z M297.584,954.633
				c11.802-7.6,20.496-15.255,26.083-22.968c4.734-6.446,5.566-12.05,2.499-16.813c-1.465-2.275-4.007-3.978-7.626-5.106
				c-3.618-1.127-8.237-0.777-13.856,1.053c-8.497,2.729-19.342,8.342-32.535,16.837c-9.778,6.297-17.282,12.559-22.512,18.789
				c-3.869,4.639-6.043,8.811-6.519,12.516c-0.278,2.624,0.371,5.159,1.944,7.603c1.846,2.867,4.774,4.588,8.783,5.167
				c5.453,0.781,12.283-0.695,20.49-4.431C282.544,963.544,290.293,959.328,297.584,954.633z"/>
		</g>
		<g>
			<path fill="#FFFFFF" d="M217.598,901.28l-20.194-18.83l-0.889-2.316l80.381-30.85c5.335-2.049,8.574-3.545,9.713-4.493
				c1.14-0.947,1.791-2.258,1.954-3.933c0.163-1.673-0.534-4.68-2.093-9.022l2.597-0.996l13.741,35.803l-2.598,0.996
				c-1.817-4.456-3.317-7.209-4.499-8.26c-1.181-1.049-2.443-1.612-3.789-1.687c-1.343-0.075-4.87,0.983-10.581,3.175
				l-51.388,19.722c-6.926,2.658-11.282,4.601-13.069,5.821c-1.372,0.904-2.243,1.922-2.612,3.057
				c-0.37,1.136-0.321,2.312,0.146,3.528c0.665,1.732,2.315,3.863,4.951,6.396L217.598,901.28z"/>
		</g>
		<g>
			<path fill="#FFFFFF" d="M228.228,797.105c-5.25,9.021-9.667,14.999-13.257,17.938c-3.588,2.939-7.51,4.752-11.768,5.437
				c-6.533,1.054-12.568-0.564-18.108-4.851c-5.539-4.287-8.983-10.612-10.331-18.977c-1.307-8.117-0.157-15.004,3.451-20.663
				c3.608-5.658,8.232-8.942,13.875-9.852c3.762-0.605,7.813,0.113,12.153,2.155c4.34,2.043,9.84,6.869,16.499,14.479
				c5.329-9.794,9.695-16.413,13.101-19.856c4.442-4.574,9.46-7.312,15.052-8.212c7.078-1.141,13.563,0.583,19.455,5.168
				c5.893,4.585,9.544,11.258,10.955,20.018c1.539,9.553-0.256,17.483-5.384,23.793c-4.114,5.03-9.018,8.003-14.71,8.92
				c-4.455,0.717-9.113-0.067-13.975-2.357C240.373,807.957,234.705,803.577,228.228,797.105z M218.407,786.729
				c-6.302-5.078-11.126-8.159-14.475-9.245c-3.347-1.086-6.977-1.313-10.887-0.685c-5.197,0.838-9.032,2.953-11.507,6.348
				c-2.474,3.396-3.305,7.615-2.492,12.664c0.813,5.049,2.935,8.921,6.365,11.617c3.431,2.698,7.101,3.731,11.01,3.102
				c2.574-0.414,5.042-1.484,7.404-3.211c2.363-1.726,4.512-3.988,6.447-6.789L218.407,786.729z M230.487,793.162
				c4.126,3.55,8.39,5.986,12.792,7.307c4.402,1.322,8.979,1.601,13.729,0.836c6.385-1.028,11.215-3.596,14.487-7.704
				c3.274-4.105,4.477-8.856,3.607-14.251c-0.861-5.346-3.06-9.382-6.598-12.115c-3.536-2.729-7.458-3.748-11.764-3.055
				c-3.563,0.574-6.604,2.028-9.123,4.363C242.94,772.902,237.229,781.108,230.487,793.162z"/>
		</g>
	</g>
	<g>
		<path fill="#FFFFFF" d="M624.6,1236.733c-69.452,0-136.833-13.604-200.271-40.438c-61.268-25.914-116.289-63.009-163.536-110.256
			c-47.247-47.247-84.342-102.269-110.256-163.536C123.705,859.065,110.1,791.685,110.1,722.233s13.605-136.833,40.437-200.271
			c25.914-61.268,63.01-116.289,110.256-163.536c47.247-47.247,102.269-84.342,163.536-110.256
			c63.438-26.832,130.819-40.437,200.271-40.437c69.451,0,136.832,13.605,200.271,40.437
			c61.268,25.914,116.289,63.01,163.536,110.256c47.247,47.247,84.342,102.269,110.256,163.536
			c26.833,63.438,40.438,130.819,40.438,200.271s-13.604,136.832-40.438,200.271c-25.914,61.268-63.009,116.289-110.256,163.536
			s-102.269,84.342-163.536,110.256C761.432,1223.129,694.051,1236.733,624.6,1236.733z M624.6,232.733
			c-269.911,0-489.5,219.589-489.5,489.5s219.589,489.5,489.5,489.5s489.5-219.589,489.5-489.5S894.511,232.733,624.6,232.733z"/>
	</g>
	<g>
		<g>
			<polygon fill="#FFFFFF" points="605.67,395.593 610.699,404.275 620.703,405.055 613.999,412.521 616.35,422.276 
				607.178,418.208 598.625,423.457 599.66,413.477 592.025,406.966 601.837,404.865 			"/>
		</g>
		<g>
			<polygon fill="#FFFFFF" points="663.713,398.612 667.395,407.947 677.171,410.208 669.429,416.592 670.302,426.588 
				661.837,421.2 652.599,425.117 655.107,415.402 648.528,407.827 658.543,407.211 			"/>
		</g>
		<g>
			<polygon fill="#FFFFFF" points="724.681,412.411 725.445,422.416 734.12,427.459 724.839,431.276 722.726,441.085 
				716.227,433.44 706.243,434.458 711.506,425.916 707.453,416.737 717.205,419.102 			"/>
		</g>
		<g>
			<polygon fill="#FFFFFF" points="776.908,436.355 777.343,446.379 785.848,451.705 776.448,455.215 774.012,464.95 
				767.768,457.096 757.757,457.786 763.298,449.42 759.548,440.113 769.217,442.797 			"/>
		</g>
		<g>
			<polygon fill="#FFFFFF" points="826.949,465.919 825.888,475.898 833.505,482.43 823.686,484.501 819.829,493.764 
				814.822,485.068 804.82,484.26 811.545,476.812 809.223,467.052 818.384,471.145 			"/>
		</g>
		<g>
			<polygon fill="#FFFFFF" points="902.488,386.564 900.495,408.363 917.319,422.362 895.971,427.197 887.859,447.526 
				876.658,428.722 854.817,427.281 869.242,410.821 863.862,389.608 883.976,398.238 			"/>
		</g>
		<g>
			<polygon fill="#FFFFFF" points="874.589,506.391 870.632,515.611 875.982,524.101 865.989,523.183 859.572,530.897 
				857.354,521.112 848.035,517.389 856.656,512.256 857.317,502.244 864.863,508.857 			"/>
		</g>
		<g>
			<polygon fill="#FFFFFF" points="911.565,561.383 905.938,569.691 909.592,579.036 899.95,576.25 892.191,582.613 891.86,572.585 
				883.412,567.17 892.848,563.758 895.388,554.05 901.549,561.969 			"/>
		</g>
		<g>
			<polygon fill="#FFFFFF" points="303.701,654.064 313.413,651.543 316.842,642.111 322.24,650.569 332.269,650.915 
				325.895,658.664 328.663,668.31 319.324,664.642 311.007,670.255 311.609,660.238 			"/>
		</g>
		<g>
			<polygon fill="#FFFFFF" points="322.147,598.947 332.127,597.898 336.921,589.084 341,598.252 350.865,600.087 343.408,606.801 
				344.709,616.749 336.021,611.732 326.96,616.044 329.048,606.23 			"/>
		</g>
		<g>
			<polygon fill="#FFFFFF" points="351.761,543.897 361.606,545.838 368.788,538.83 369.98,548.795 378.867,553.456 
				369.761,557.672 368.069,567.563 361.247,560.207 351.318,561.654 356.208,552.892 			"/>
		</g>
		<g>
			<polygon fill="#FFFFFF" points="316.947,825.753 323.861,818.483 321.791,808.663 330.842,812.993 339.54,807.989 
				338.221,817.936 345.667,824.663 335.799,826.482 331.703,835.642 326.923,826.818 			"/>
		</g>
		<g>
			<polygon fill="#FFFFFF" points="303.495,769.209 311.415,763.048 310.83,753.03 319.136,758.66 328.481,755.008 325.696,764.647 
				332.056,772.407 322.029,772.737 316.613,781.184 313.201,771.748 			"/>
		</g>
		<g>
			<polygon fill="#FFFFFF" points="299.562,706.824 308.946,703.271 311.343,693.527 317.618,701.358 327.625,700.622 
				322.121,709.012 325.909,718.304 316.231,715.661 308.565,722.136 308.088,712.112 			"/>
		</g>
		<g>
			<polygon fill="#FFFFFF" points="388.812,499.985 398.587,502.25 405.995,495.48 406.862,505.477 415.588,510.431 406.35,514.344 
				404.334,524.175 397.758,516.597 387.786,517.719 392.959,509.12 			"/>
		</g>
		<g>
			<polygon fill="#FFFFFF" points="430.692,459.683 440.023,463.378 448.354,457.787 447.722,467.802 455.615,473.998 
				445.896,476.494 442.44,485.914 437.065,477.442 427.039,477.066 433.435,469.336 			"/>
		</g>
		<g>
			<polygon fill="#FFFFFF" points="482.438,424.617 490.264,430.897 499.876,428.013 496.316,437.397 502.032,445.645 
				492.009,445.163 485.929,453.144 483.29,443.464 473.82,440.147 482.213,434.646 			"/>
		</g>
		<g>
			<polygon fill="#FFFFFF" points="545.322,403.709 551.821,411.355 561.803,410.335 556.539,418.881 560.593,428.059 
				550.84,425.694 543.364,432.383 542.601,422.378 533.926,417.334 543.205,413.516 			"/>
		</g>
		<g>
			<polygon fill="#FFFFFF" points="934.113,614.952 927.313,622.33 929.534,632.116 920.415,627.926 911.796,633.062 
				912.961,623.097 905.414,616.484 915.252,614.515 919.207,605.293 924.122,614.041 			"/>
		</g>
		<g>
			<polygon fill="#FFFFFF" points="948.231,675.848 939.558,680.891 938.792,690.897 931.316,684.201 921.566,686.568 
				925.619,677.391 920.356,668.845 930.339,669.865 936.838,662.22 938.954,672.029 			"/>
		</g>
		<g>
			<polygon fill="#FFFFFF" points="949.411,733.289 940.576,738.046 939.484,748.021 932.23,741.086 922.405,743.129 
				926.759,734.09 921.781,725.379 931.724,726.724 938.469,719.296 940.264,729.17 			"/>
		</g>
		<g>
			<polygon fill="#FFFFFF" points="944.579,791.209 935.134,794.597 932.568,804.3 926.429,796.36 916.411,796.921 922.062,788.629 
				918.435,779.271 928.067,782.084 935.843,775.744 936.146,785.772 			"/>
		</g>
		<g>
			<polygon fill="#FFFFFF" points="928.882,851.717 918.858,852.17 913.544,860.682 910.021,851.284 900.28,848.865 
				908.126,842.609 907.421,832.6 915.795,838.124 925.096,834.362 922.427,844.035 			"/>
		</g>
		<g>
			<polygon fill="#FFFFFF" points="899.949,902.019 889.984,900.841 883.363,908.383 881.405,898.542 872.188,894.577 
				880.94,889.673 881.863,879.681 889.232,886.489 899.021,884.279 894.822,893.394 			"/>
		</g>
		<g>
			<polygon fill="#FFFFFF" points="862.747,946.675 853.067,944.028 845.399,950.5 844.929,940.476 836.402,935.184 
				845.789,931.637 848.189,921.893 854.464,929.724 864.47,928.996 858.962,937.383 			"/>
		</g>
		<g>
			<polygon fill="#FFFFFF" points="815.164,987.213 806.696,981.829 797.46,985.751 799.967,976.034 793.381,968.464 
				803.396,967.842 808.562,959.24 812.249,968.572 822.025,970.829 814.287,977.218 			"/>
		</g>
		<g>
			<polygon fill="#FFFFFF" points="764.696,1014.674 756.412,1009.015 747.052,1012.632 749.875,1003.003 743.542,995.22 
				753.57,994.927 759.019,986.5 762.394,995.949 772.092,998.523 764.149,1004.656 			"/>
		</g>
		<g>
			<polygon fill="#FFFFFF" points="711.041,1037.016 703.688,1030.187 693.895,1032.37 698.121,1023.268 693.017,1014.63 
				702.979,1015.833 709.62,1008.31 711.553,1018.156 720.758,1022.148 711.991,1027.028 			"/>
		</g>
		<g>
			<polygon fill="#FFFFFF" points="650.093,1050.9 645.083,1042.207 635.081,1041.403 641.803,1033.953 639.473,1024.192 
				648.637,1028.282 657.201,1023.053 656.145,1033.03 663.763,1039.56 653.946,1041.636 			"/>
		</g>
		<g>
			<polygon fill="#FFFFFF" points="583.91,1047.546 580.632,1038.062 570.96,1035.387 578.969,1029.338 578.525,1019.312 
				586.75,1025.058 596.149,1021.54 593.227,1031.139 599.475,1038.989 589.444,1039.176 			"/>
		</g>
		<g>
			<polygon fill="#FFFFFF" points="527.513,1033.492 525.682,1023.629 516.517,1019.542 525.337,1014.753 526.39,1004.775 
				533.67,1011.68 543.485,1009.6 539.167,1018.657 544.179,1027.35 534.23,1026.041 			"/>
		</g>
		<g>
			<polygon fill="#FFFFFF" points="470.303,1008.302 471.464,998.336 463.912,991.728 473.753,989.755 477.7,980.531 
				482.619,989.276 492.614,990.184 485.815,997.563 488.041,1007.348 478.919,1003.164 			"/>
		</g>
		<g>
			<polygon fill="#FFFFFF" points="423.612,974.824 425.099,964.899 417.768,958.049 427.667,956.398 431.919,947.308 
				436.546,956.209 446.502,957.445 439.467,964.599 441.371,974.45 432.392,969.969 			"/>
		</g>
		<g>
			<polygon fill="#FFFFFF" points="380.14,936.245 383.089,926.654 376.859,918.784 386.894,918.627 392.448,910.272 395.7,919.765 
				405.365,922.47 397.34,928.495 397.756,938.52 389.547,932.752 			"/>
		</g>
		<g>
			<polygon fill="#FFFFFF" points="341.108,887.418 346.753,879.122 343.124,869.767 352.758,872.578 360.531,866.229 
				360.838,876.26 369.273,881.694 359.833,885.087 357.271,894.787 351.126,886.854 			"/>
		</g>
		<g>
			<polygon fill="#FFFFFF" points="1037.725,790.444 1018.121,800.186 1015.03,821.854 999.713,806.216 978.15,809.977 
				988.282,790.574 978.05,771.226 999.631,774.87 1014.866,759.16 1018.073,780.811 			"/>
		</g>
		<g>
			<polygon fill="#FFFFFF" points="244.431,702.224 232.885,720.82 241.657,740.873 220.403,735.634 204.046,750.177 
				202.454,728.347 183.571,717.276 203.841,709.021 208.532,687.646 222.65,704.37 			"/>
		</g>
		<g>
			<polygon fill="#FFFFFF" points="443.159,349.407 436.481,370.253 449.866,387.571 427.977,387.656 415.646,405.739 
				408.793,384.953 387.786,378.805 405.44,365.869 404.793,343.994 422.554,356.784 			"/>
		</g>
	</g>
</g>
<g id="Layer_4">
	<g>
		<g>
			<path fill="#FFFFFF" d="M191.723,34.17c9.746,8.17,14.62,20.21,14.62,36.12c0,15.05-4.912,26.552-14.728,34.507
				c-9.819,7.955-24.046,11.933-42.678,11.933h-26.66v47.085h-43.86v-141.9h70.52C167.713,21.916,181.974,26,191.723,34.17z
				 M157.323,81.9c3.295-2.58,4.945-6.591,4.945-12.04c0-5.445-1.649-9.46-4.945-12.04c-3.299-2.58-8.459-3.87-15.48-3.87h-19.565
				v31.82h19.565C148.864,85.771,154.024,84.48,157.323,81.9z"/>
		</g>
		<g>
			<path fill="#FFFFFF" d="M286.751,113.505v50.31h-44.075v-50.31l-49.88-91.59h44.505l17.2,35.475l10.535,24.725l10.32-24.725
				l17.415-35.475h43.645L286.751,113.505z"/>
		</g>
		<g>
			<path fill="#FFFFFF" d="M392.962,85.34h66.22v78.475h-29.67l-1.505-16.34c-7.599,12.329-20.714,18.49-39.345,18.49
				c-12.615,0-23.902-2.795-33.863-8.385c-9.964-5.59-17.811-13.831-23.542-24.725c-5.734-10.891-8.6-24.08-8.6-39.56
				c0-15.335,2.902-28.521,8.707-39.56c5.805-11.036,14.116-19.458,24.94-25.262c10.82-5.805,23.684-8.708,38.592-8.708
				c16.911,0,30.456,2.939,40.635,8.815c10.175,5.879,18.13,15.48,23.865,28.81l-40.85,15.265
				c-2.724-12.9-10.105-19.35-22.145-19.35c-19.064,0-28.595,13.188-28.595,39.56c0,14.049,2.436,24.295,7.31,30.745
				c4.871,6.45,12.396,9.675,22.575,9.675c7.451,0,13.401-1.576,17.845-4.73c4.441-3.151,6.665-7.811,6.665-13.975v-1.075h-29.24
				V85.34z"/>
		</g>
		<g>
			<path fill="#FFFFFF" d="M589.684,39.008c12.47,12.83,18.705,30.782,18.705,53.857c0,23.079-6.235,41.032-18.705,53.858
				c-12.47,12.829-29.814,19.242-52.03,19.242c-14.62,0-27.271-2.865-37.947-8.6c-10.68-5.731-18.886-14.116-24.618-25.155
				c-5.734-11.036-8.6-24.15-8.6-39.345c0-15.191,2.865-28.306,8.6-39.345c5.731-11.036,13.938-19.42,24.618-25.155
				c10.676-5.731,23.328-8.6,37.947-8.6C559.869,19.766,577.213,26.182,589.684,39.008z M518.088,63.088
				c-4.3,6.524-6.45,16.448-6.45,29.777c0,13.33,2.15,23.257,6.45,29.778c4.3,6.524,10.821,9.782,19.565,9.782
				c8.741,0,15.228-3.225,19.458-9.675c4.226-6.45,6.343-16.411,6.343-29.885c0-13.471-2.117-23.435-6.343-29.885
				c-4.229-6.45-10.716-9.675-19.458-9.675C528.909,53.306,522.389,56.567,518.088,63.088z"/>
		</g>
		<g>
			<path fill="#FFFFFF" d="M738.245,54.811h-45.15v109.005h-43.86V54.811h-45.579V21.916h134.59V54.811z"/>
		</g>
		<g>
			<path fill="#FFFFFF" d="M878.853,21.916v141.9h-44.074v-55.04h-46.011v55.04h-43.859v-141.9h43.859V75.88h46.011V21.916H878.853z
				"/>
		</g>
		<g>
			<path fill="#FFFFFF" d="M975.171,134.36h-43.215l-8.17,29.455h-43.859l47.729-141.9h52.675l47.945,141.9h-45.15L975.171,134.36z
				 M967.646,105.98l-7.74-28.165l-6.02-23.22h-0.431l-5.805,23.005l-7.955,28.38H967.646z"/>
		</g>
		<g>
			<path fill="#FFFFFF" d="M1203.284,163.815h-38.7v-56.76l0.86-45.795h-0.43l-31.175,102.555h-35.261L1067.834,61.26h-0.645
				l0.86,45.795v56.76h-38.7v-141.9h61.92l19.135,67.295l7.095,28.165h0.431l7.095-28.165l19.135-67.295h59.125V163.815z"/>
		</g>
	</g>
	<g>
		<g id="Yellow_2_">
			<g>
				<path fill="#FFFFFF" d="M607.477,638.161c-12.867,9.009-52.512,25.798-67.524,33.611c-6.075,3.162-11.774,4.341-16.941,4.334
					c-7.595-0.015-14.051-2.596-18.914-5.244c-8.169-4.436-12.77-10.015-16.35-16.016c-5.327-8.906,9.183-23.191,9.183-23.191
					c4.052-5.354,8.743-12.223,11.871-17.729c3.412-5.987,7.806-10.875,12.019-17.267c3.118-4.736,5.206-10.539,9.983-17.382
					c2.39-3.421,5.45-7.104,9.652-11.046c11.812-11.073,24.593-15.151,24.593-15.151c12.313-3.373,16.879-9.164,26.61-19.368
					c9.73-10.206,29.229-23.382,47.823-28.747c11.961-3.448,22.186-5.114,31.506-5.098c15.505,0.031,28.509,4.723,42.81,13.626
					c33.858,21.09,49.654,63.551,49.956,64.372c0.004,0.02-1.927-0.25-5.891-0.26c-4.812-0.004-12.614,0.371-23.574,2.078
					c-18.053,2.828-33.468,9.384-43.011,13.704c-10.002,4.533-40.152,15.089-40.104,15.023L607.477,638.161z M851.269,637.522
					c-5.497-12.361-10.78-24.617-19.122-34.719c-8.339-10.103-38.929-21.678-69.836-25.257
					c-9.287-22.019-15.58-32.662-20.077-39.033c-15.479-21.923-49.134-40.137-71.821-39.74
					c-22.463,0.391-51.931,12.92-58.464,18.657c-48.237,42.335-26.241,25.736-62.417,42.582
					c-26.58,12.378-27.899-3.667-50.843-3.267c-22.941,0.403-33.731,9.033-47.782,21.555c-7.792,6.943-14.907,15.37-21.746,25.77
					c-11.7,17.771-21.161,37.583-27.36,57.282c-8.249,26.183-8.989,55.905-2.195,88.344c5.262,25.148,14.896,51.371,28.638,77.966
					c1.09,3.146,2.531,5.688,3.904,7.638c2.305,4.696,8.077,16.386,16.383,29.6c18.52,29.468,28.183,39.756,41.784,49.998
					c12.033,12.079,23.051,20.522,32.771,25.104c5.335,2.51,10.286,3.898,15.137,4.232c1.824,0.127,3.693,0.194,5.533,0.199
					c20.773,0.037,36.604-7.893,50.566-14.882c11.077-5.546,20.642-10.339,32.088-11.292c1.439-0.125,2.882-0.186,4.331-0.181
					c13.458,0.025,24.079,5.392,36.375,11.609c13.436,6.793,28.67,14.488,48.44,15.041c25.104,0.062,41.712-15.899,52.703-26.458
					c9.407-9.033,18.972-19.843,28.446-32.114c13.008-16.858,22.736-30.716,37.094-53.44c16.887-33.649,16.173-27.809,28.579-72.271
					c6.281-22.507,7.929-45.794,4.906-69.227C867.283,691.219,853.848,642.404,851.269,637.522L851.269,637.522z M432.258,834.295
					c5.174-16.463,13.636-33.812,37.357-53.413c13.33-11.017,40.479-22.444,47.869-25.299c21.539-8.324,49.37-13.915,71.909-19.32
					c57.195-13.703,100.677-15,153.07-26.307c8.952-1.933,17.042-3.979,24.344-6.113c80.873-23.567,78.992-76.536,78.992-76.536
					c0.201,0.36,14.247,31.891,20.035,55.913c4.552,18.894,4.553,43.505-1.815,66.312c-5.858,21.009,1.688-4.515-4.216,15.041
					c0,0-6.429,22.939-28.096,37.859c-11.625,8.003-16.63,10.261-35.289,12.263c-18.659,2.008-27.392,1.319-34.788,0.609
					c-9.127-0.885-13.479-2.104-27.298-2.427c-2.487-0.06-5.021-0.09-7.527-0.095c-27.907-0.053-58.3,3.223-92.907,10.02
					c-60.114,11.807-77.729,12.577-111.187,37.354c-3.755,2.777-16.872,14.984-27.688,31.301l-11.381,17.196
					c-27.793-28.887-27.102-30.258-34.826-41.872C448.703,866.328,432.092,834.825,432.258,834.295L432.258,834.295z"/>
			</g>
		</g>
		<g id="Orange_2_">
			<g>
				<path fill="#FFFFFF" d="M523.061,680.076c-0.02,0-0.037,0-0.056,0c-6.946-0.016-13.751-1.887-20.804-5.728
					c-9.753-5.297-14.668-12.116-17.86-17.47c-6.509-10.877,7.13-25.362,9.593-27.838c4.292-5.689,8.652-12.209,11.418-17.075
					c2.103-3.689,4.469-6.868,6.973-10.233c1.71-2.295,3.477-4.669,5.183-7.258c1.207-1.83,2.26-3.871,3.481-6.233
					c1.717-3.32,3.659-7.079,6.562-11.236c2.875-4.115,6.207-7.93,10.191-11.669c12.326-11.557,25.546-15.86,26.104-16.039
					l0.156-0.045c10.127-2.773,14.433-7.331,22.251-15.601c0.809-0.856,1.652-1.749,2.537-2.677
					c10.136-10.635,30.428-24.294,49.595-29.822c12.307-3.549,23.043-5.24,32.61-5.253c15.297,0.03,29.146,4.416,44.901,14.225
					c34.838,21.701,50.913,64.557,51.584,66.371l0.774,2.111l-1.411,1.752c-0.613,0.757-1.733,1.628-3.66,1.441
					c-1.512-0.145-3.305-0.22-5.329-0.226c-0.031,0-0.066,0-0.094,0c-4.511,0-12.112,0.354-22.859,2.031
					c-16.792,2.63-31.261,8.542-41.986,13.397c-5.329,2.417-16.027,6.412-24.064,9.338c-4.399,1.602-8.488,3.062-11.479,4.118
					c-1.501,0.529-2.725,0.956-3.572,1.253c-0.696,0.243-1.463,0.509-2.242,0.604c-3.978,2.248-8.657,4.297-14.115,6.016
					c-6.239,6.854-15.409,14.49-27.688,23.081c-8.71,6.099-28.455,15.26-45.875,23.341c-8.736,4.054-16.987,7.883-22.093,10.538
					C535.687,678.465,529.386,680.076,523.061,680.076z M566.198,556.881c-0.92,0.309-12.464,4.339-23.029,14.245
					c-3.576,3.358-6.559,6.767-9.113,10.422c-2.599,3.728-4.338,7.088-6.018,10.338c-1.268,2.455-2.468,4.773-3.903,6.957
					c-1.83,2.778-3.667,5.244-5.444,7.629c-2.356,3.166-4.581,6.152-6.44,9.419c-2.958,5.204-7.616,12.165-12.155,18.157
					l-0.379,0.435c-4.003,3.954-11.363,13.645-8.562,18.328c2.843,4.762,6.824,10.213,14.837,14.568
					c5.868,3.192,11.436,4.748,17.028,4.759c0.014,0,0.028,0,0.042,0c5.037,0,10.104-1.306,15.059-3.887
					c5.265-2.74,13.597-6.604,22.416-10.695c16.275-7.552,36.529-16.949,44.665-22.643c17.669-12.365,28.709-22.712,32.81-30.765
					l0.323-0.609c0.741-1.583,1.448-3.111,2.136-4.613c5.989-13.013,11.167-24.253,20.185-24.253c0.005,0,0.011,0,0.018,0
					c1.112,0.004,2.23,0.186,3.334,0.545c4.298,1.38,6.936,5.64,6.875,11.117c-0.038,3.698-1.272,7.98-4.048,12.295
					c8.539-3.116,18.071-6.71,22.805-8.856c11.185-5.064,26.296-11.233,44.034-14.008c11.179-1.744,19.188-2.122,23.995-2.126
					c-5.484-12.121-20.578-40.963-45.967-56.778c-14.622-9.103-26.802-12.999-40.723-13.023c-8.842,0.029-18.816,1.601-30.394,4.941
					c-17.813,5.138-36.649,17.808-46.052,27.674c-0.879,0.918-1.711,1.801-2.515,2.649
					C583.821,547.777,578.399,553.515,566.198,556.881z M660.65,582.609c-3.93,0-8.731,10.433-12.967,19.636
					c-0.634,1.368-1.27,2.761-1.928,4.163c13.212-6.855,17.145-15.675,17.191-20.158c0.021-1.81-0.536-3.208-1.382-3.481
					c-0.332-0.107-0.624-0.16-0.911-0.16H660.65z"/>
			</g>
			<g>
				<path fill="#FFFFFF" d="M715.702,948.699C715.702,948.699,715.702,948.699,715.702,948.699h-0.156
					c-20.766-0.579-36.413-8.492-50.222-15.47c-11.85-5.988-22.079-11.16-34.592-11.184c-0.002,0-0.006,0-0.007,0
					c-1.388,0-2.691,0.056-3.974,0.167c-10.694,0.891-19.94,5.523-30.645,10.88c-14.336,7.18-30.57,15.308-52.207,15.308
					c-2.094-0.003-4.044-0.072-5.956-0.208c-5.347-0.371-10.762-1.876-16.548-4.601c-10.081-4.753-21.417-13.395-33.695-25.696
					c-9.455-7.143-17.548-14.661-28.433-29.732c-5.631-6.591-7.934-10.175-10.845-14.707c-0.87-1.357-1.802-2.811-2.912-4.478
					l-0.383-0.574l-0.071-0.289c-0.544-1.091-2.519-4.885-4.434-8.57l-0.084-0.167c-5.923-10.091-10.116-18.592-11.82-22.056
					c-1.714-2.483-3.102-5.199-4.129-8.088c-13.837-26.827-23.551-53.311-28.87-78.726c-6.931-33.107-6.16-63.506,2.298-90.349
					c6.308-20.048,15.93-40.198,27.828-58.272c7.026-10.684,14.358-19.369,22.418-26.547c14.991-13.36,26.596-22.147,50.354-22.561
					c9.928-0.17,16.137,2.465,21.598,4.782c4.022,1.708,7.496,3.183,11.932,3.183c4.319,0,9.458-1.418,15.71-4.328
					c2.596-1.208,4.894-2.248,6.946-3.149c5.209-2.733,8.884-3.918,9.041-3.968l0.156-0.045c0.574-0.159,1.131-0.321,1.67-0.491
					l0.84-0.327c2.311-0.902,3.988-1.557,5.446-2.286c5.102-2.773,8.762-6.646,14.294-12.498c0.81-0.856,1.653-1.749,2.538-2.677
					c4.916-5.159,11.878-10.732,19.619-15.717l0.923-0.81c7.583-6.659,37.848-19.238,61.007-19.642l0.805-0.006
					c24.438,0,58.479,18.971,74.332,41.424c2.448,3.466,4.865,7.387,7.378,11.982c7.313,11.338,11.836,21.449,13.665,25.869
					c29.924,4.082,59.782,15.411,68.687,26.199c8.359,10.121,13.787,22.346,19.034,34.168l0.609,1.364
					c0.668,1.323,1.981,4.732,5.897,17.938c4.01,10.945,7.019,20.546,8.944,28.547c3.28,13.619,4.168,29.758,2.492,45.448
					c-0.889,11.367-2.898,22.729-5.981,33.77c-10.298,36.901-11.77,39.745-21.331,58.244c-2.062,3.996-4.515,8.737-7.524,14.742
					l-0.193,0.338c-13.885,21.981-23.646,36.048-37.304,53.746c-9.6,12.44-19.304,23.391-28.842,32.549
					C759.576,932.116,742.314,948.699,715.702,948.699z M630.632,914.11c14.516,0.027,25.522,5.591,38.268,12.031
					c13.068,6.611,27.878,14.096,46.764,14.621l0.038,3.966v-3.968c23.416,0.002,39.291-15.249,49.794-25.341
					c9.27-8.901,18.707-19.56,28.065-31.69c13.459-17.437,23.092-31.312,36.777-52.968c2.991-5.956,5.427-10.672,7.483-14.654
					c5.172-10.005,7.876-15.235,10.92-23.856c-3.938,4.663-8.81,9.332-14.782,13.448c-12.313,8.48-17.967,10.886-37.117,12.943
					c-8.42,0.905-15.554,1.345-21.803,1.345c-5.68,0-9.927-0.36-13.79-0.731c-2.894-0.28-5.316-0.595-7.663-0.9
					c-5.151-0.664-10.02-1.292-19.348-1.512c-2.462-0.06-4.963-0.088-7.442-0.093h-0.653c-27.476,0-57.4,3.253-91.479,9.943
					c-7.407,1.456-14.171,2.743-20.399,3.929c-44.086,8.396-60.58,11.538-89.191,32.721c-3.489,2.586-16.311,14.568-26.741,30.306
					l-9.806,14.816c1.368,1.113,2.755,2.19,4.176,3.258l0.425,0.372c11.703,11.754,22.352,19.933,31.652,24.315
					c4.88,2.296,9.366,3.561,13.716,3.865c1.736,0.121,3.508,0.184,5.269,0.19c19.898,0,35.239-7.682,48.775-14.462
					c11.456-5.734,21.333-10.68,33.54-11.703C627.579,914.175,629.115,914.11,630.632,914.11z M465.514,883.255
					c3.948,4.603,9.583,10.724,17.558,19.069l8.641-13.057c10.809-16.305,24.19-29.01,28.636-32.302
					c30.069-22.264,48.325-25.741,92.432-34.138c6.214-1.183,12.96-2.47,20.351-3.919c34.59-6.793,65.013-10.094,93.012-10.094
					h0.672c2.536,0.007,5.098,0.032,7.614,0.095c9.741,0.227,14.81,0.882,20.176,1.574c2.28,0.297,4.643,0.603,7.407,0.87
					c3.82,0.366,7.691,0.697,13.027,0.697c5.961,0,12.816-0.426,20.954-1.301c17.891-1.922,22.313-3.913,33.463-11.587
					c20.251-13.946,26.467-35.448,26.525-35.661c0.936-3.098,1.529-5.056,1.901-6.269c0.323-1.63,1.053-4.241,2.315-8.77
					c1.914-6.854,3.286-14.073,4.082-21.456c0.895-11.543,0.589-23.321-0.896-35.005c-0.679-2.464-5.865-21.218-10.179-35.763
					c-1.942-5.298-3.901-10.297-5.616-14.533c-5.159,18.297-22.401,49.258-79.673,65.947c-7.53,2.202-15.816,4.278-24.618,6.182
					c-23.988,5.176-46.573,8.329-68.416,11.378c-26.347,3.681-53.588,7.484-84.566,14.906c-4.483,1.074-9.177,2.158-13.987,3.271
					c-18.944,4.366-40.415,9.32-57.415,15.891c-8.849,3.419-34.502,14.518-46.771,24.657c-22.908,18.933-30.831,35.29-35.657,50.16
					c1.762,3.671,7.633,14.964,10.999,21.437c1.448,2.468,2.932,4.906,4.406,7.253C457.033,870.972,461.491,877.669,465.514,883.255
					z M499.531,560.708l-0.772,0.007c-21.501,0.375-31.187,8.052-45.213,20.551c-7.537,6.715-14.429,14.887-21.069,24.986
					c-11.5,17.469-20.799,36.935-26.89,56.293c-8.041,25.53-8.748,54.579-2.098,86.339c5.13,24.51,14.49,50.098,27.825,76.069
					c5.382-13.846,14.747-29.757,35.774-47.129c15.77-13.034,48.634-25.815,48.965-25.944c17.528-6.771,39.292-11.793,58.492-16.225
					c4.787-1.102,9.458-2.181,13.92-3.252c31.353-7.51,58.79-11.342,85.319-15.048c22.701-3.169,44.139-6.163,67.841-11.279
					c8.617-1.858,16.716-3.892,24.069-6.04c76.649-22.337,76.197-70.562,76.138-72.604l0.462-0.13
					c-3.762-7.978-7.821-15.446-13.208-21.971c-6.789-8.228-34.139-19.509-64.431-23.496h-0.908c-0.056,0-0.245-0.003-0.564-0.035
					c-1.512-0.145-3.305-0.22-5.329-0.226c-0.003,0-0.003,0-0.003,0c-4.577,0-12.186,0.353-22.95,2.031
					c-16.792,2.63-31.261,8.542-41.986,13.397c-5.032,2.283-32.145,12.561-39.817,14.9l-43.387,29.539
					c-8.667,6.068-28.412,15.229-45.832,23.311c-8.736,4.054-16.987,7.883-22.093,10.538c-6.099,3.174-12.399,4.785-18.725,4.785
					c-7.003-0.016-13.807-1.887-20.86-5.728c-9.753-5.297-14.668-12.116-17.86-17.47c-6.509-10.877,7.13-25.361,9.593-27.838
					c4.292-5.689,8.652-12.209,11.418-17.075c2.103-3.689,4.469-6.868,6.973-10.233c1.71-2.295,3.477-4.669,5.183-7.258
					c1.207-1.83,2.26-3.871,3.481-6.233c1.717-3.32,3.659-7.079,6.562-11.236c2.047-2.932,4.327-5.71,6.91-8.417
					c-0.782,0.06-1.552,0.091-2.311,0.091c-6.05,0-10.616-1.938-15.032-3.812C512.295,562.822,507.311,560.708,499.531,560.708z
					 M558.254,560.42c-5.584,2.956-10.659,6.559-15.085,10.706c-3.576,3.358-6.559,6.767-9.113,10.422
					c-2.599,3.728-4.338,7.088-6.018,10.338c-1.268,2.455-2.468,4.773-3.903,6.957c-1.83,2.778-3.667,5.244-5.444,7.629
					c-2.356,3.166-4.581,6.152-6.44,9.419c-2.958,5.204-7.616,12.165-12.155,18.157l-0.379,0.435
					c-4.003,3.954-11.363,13.645-8.562,18.328c2.843,4.762,6.824,10.213,14.837,14.568c5.868,3.192,11.436,4.748,17.028,4.759
					c5.08,0,10.146-1.306,15.102-3.887c5.265-2.74,13.597-6.604,22.416-10.695c16.275-7.552,36.529-16.949,44.665-22.643
					l44.753-30.471h0.585c4.29-1.462,30.175-10.624,39.099-14.668c11.185-5.064,26.296-11.233,44.034-14.008
					c10.207-1.593,17.771-2.044,22.646-2.116c-3.656-8.37-7.109-15.542-10.289-21.379c-10.104-15.6-21.656-27.514-34.329-35.41
					c-14.622-9.103-26.802-12.999-40.723-13.023c-8.968,0-18.871,1.615-30.394,4.941c-10.907,3.146-20.871,8.682-27.39,12.838
					c-7.149,6.283-12.696,11.214-17.091,15.125c-12.468,11.091-15.852,14.102-20.476,16.442c-2.237,1.206-4.633,2.209-7.313,3.064
					C565.592,557.318,562.483,558.565,558.254,560.42z"/>
			</g>
		</g>
		<g id="White_2_">
			<g>
				<path fill="#FFFFFF" d="M565.019,629.454c5.455,0.011,9.89-4.408,9.899-9.865c0.012-5.46-4.406-9.889-9.864-9.901
					c-5.458-0.011-9.888,4.4-9.897,9.865C555.147,625.012,559.559,629.446,565.019,629.454"/>
			</g>
		</g>
	</g>
</g>
</svg>
